<define-tag pagetitle>DLA-1188-1 libxml2</define-tag>
<define-tag report_date>2017-11-23</define-tag>
<define-tag secrefs>CVE-2017-5130</define-tag>
<define-tag packages>libxml2</define-tag>
<define-tag isvulnerable>yes</define-tag>
<define-tag fixed>yes</define-tag>
<define-tag fixed-section>no</define-tag>

#use wml::debian::security

