<define-tag pagetitle>DLA-1102-1 apache2</define-tag>
<define-tag report_date>2017-9-21</define-tag>
<define-tag secrefs>CVE-2017-9798 Bug#876109</define-tag>
<define-tag packages>apache2</define-tag>
<define-tag isvulnerable>yes</define-tag>
<define-tag fixed>yes</define-tag>
<define-tag fixed-section>no</define-tag>

#use wml::debian::security

