<define-tag pagetitle>DLA-2135-1 jackson-databind</define-tag>
<define-tag report_date>2020-03-06</define-tag>
<define-tag secrefs>CVE-2020-9546 CVE-2020-9547 CVE-2020-9548</define-tag>
<define-tag packages>jackson-databind</define-tag>
<define-tag isvulnerable>yes</define-tag>
<define-tag fixed>yes</define-tag>
<define-tag fixed-section>no</define-tag>

#use wml::debian::security

