<define-tag pagetitle>DLA-2377-1 qt4-x11</define-tag>
<define-tag report_date>2020-09-28</define-tag>
<define-tag secrefs>CVE-2018-15518 CVE-2018-19869 CVE-2018-19870 CVE-2018-19871 CVE-2018-19872 CVE-2018-19873 CVE-2020-17507</define-tag>
<define-tag packages>qt4-x11</define-tag>
<define-tag isvulnerable>yes</define-tag>
<define-tag fixed>yes</define-tag>
<define-tag fixed-section>no</define-tag>

#use wml::debian::security

