<define-tag pagetitle>DLA-1247-1 rsync</define-tag>
<define-tag report_date>2018-1-19</define-tag>
<define-tag secrefs>CVE-2018-5764 Bug##887588</define-tag>
<define-tag packages>rsync</define-tag>
<define-tag isvulnerable>yes</define-tag>
<define-tag fixed>yes</define-tag>
<define-tag fixed-section>no</define-tag>

#use wml::debian::security

