<define-tag pagetitle>DLA-2002-1 libice</define-tag>
<define-tag report_date>2019-11-23</define-tag>
<define-tag secrefs>CVE-2017-2626</define-tag>
<define-tag packages>libice</define-tag>
<define-tag isvulnerable>yes</define-tag>
<define-tag fixed>yes</define-tag>
<define-tag fixed-section>no</define-tag>

#use wml::debian::security

