<define-tag pagetitle>DLA-1918-1 libonig</define-tag>
<define-tag report_date>2019-09-12</define-tag>
<define-tag secrefs>CVE-2019-16163 Bug#939988</define-tag>
<define-tag packages>libonig</define-tag>
<define-tag isvulnerable>yes</define-tag>
<define-tag fixed>yes</define-tag>
<define-tag fixed-section>no</define-tag>

#use wml::debian::security

