<define-tag pagetitle>DLA-1809-1 libav</define-tag>
<define-tag report_date>2019-05-29</define-tag>
<define-tag secrefs>CVE-2018-15822 CVE-2019-11338</define-tag>
<define-tag packages>libav</define-tag>
<define-tag isvulnerable>yes</define-tag>
<define-tag fixed>yes</define-tag>
<define-tag fixed-section>no</define-tag>

#use wml::debian::security

