<define-tag pagetitle>DLA-1687-1 sox</define-tag>
<define-tag report_date>2019-02-24</define-tag>
<define-tag secrefs>CVE-2014-8145</define-tag>
<define-tag packages>sox</define-tag>
<define-tag isvulnerable>yes</define-tag>
<define-tag fixed>yes</define-tag>
<define-tag fixed-section>no</define-tag>

#use wml::debian::security

