<define-tag pagetitle>DLA-1635-1 sssd</define-tag>
<define-tag report_date>2019-1-17</define-tag>
<define-tag secrefs>CVE-2019-3811 Bug#919051</define-tag>
<define-tag packages>sssd</define-tag>
<define-tag isvulnerable>yes</define-tag>
<define-tag fixed>yes</define-tag>
<define-tag fixed-section>no</define-tag>

#use wml::debian::security

