<define-tag pagetitle>DLA-644-1 libav</define-tag>
<define-tag report_date>2016-10-4</define-tag>
<define-tag secrefs>CVE-2015-1872 CVE-2015-5479 CVE-2016-7393</define-tag>
<define-tag packages>libav</define-tag>
<define-tag isvulnerable>yes</define-tag>
<define-tag fixed>yes</define-tag>
<define-tag fixed-section>no</define-tag>

#use wml::debian::security

